[2018-10-08 11:56:08]
m = teachers;
c = index;
a = tutor_reg;
To：khohonlam@gmail.com

[2018-10-08 13:29:32]
m = teachers;
c = index;
a = tutor_reg;
To：oscarwong1874@gmail.com

[2018-10-08 15:24:03]
m = teachers;
c = index;
a = tutor_reg;
To：winghanleung2000814@gmail.com

[2018-10-08 17:00:11]
m = teachers;
c = index;
a = tutor_reg;
To：tobysiu1999@gmail.com

[2018-10-08 17:12:04]
m = teachers;
c = index;
a = std_request;
To：1234567890@qq.com

[2018-10-08 17:12:04]
m = teachers;
c = index;
a = std_request;
To：zal_apink@163.com

[2018-10-08 17:12:04]
m = teachers;
c = index;
a = std_request;
To：enquiry@tutorseeking.com

[2018-10-08 17:14:42]
m = tparents;
c = index;
a = tor_respond;
To：1234567890@qq.com

[2018-10-08 17:14:42]
m = tparents;
c = index;
a = tor_respond;
To：zal_apink@163.com

[2018-10-08 17:14:42]
m = tparents;
c = index;
a = tor_respond;
To：enquiry@tutorseeking.com

[2018-10-08 23:53:02]
m = teachers;
c = index;
a = tutor_reg;
To：sophielyh@yahoo.com

