[2018-10-11 16:05:11]
m = teachers;
c = index;
a = tutor_reg;
To：hosum.chan@ymail.com

[2018-10-11 18:18:25]
m = teachers;
c = index;
a = tutor_reg;
To：berylli.oms@gmail.com

[2018-10-11 21:02:06]
m = teachers;
c = index;
a = tutor_reg;
To：kwokjessie25@gmail.com

[2018-10-11 21:21:00]
m = pair;
c = autoRecommend;
a = auto_overtime_48h;
To：kwokjessie25@gmail.com

[2018-10-11 21:21:00]
m = pair;
c = autoRecommend;
a = auto_overtime_48h;
To：christineng@asianfencinghk.com

[2018-10-11 21:21:00]
m = pair;
c = autoRecommend;
a = auto_overtime_48h;
To：enquiry@tutorseeking.com

