[2018-09-30 11:59:02]
m = pair;
c = autoRecommend;
a = auto_overtime_48h;
To：fokh2007@yahoo.com.hk

[2018-09-30 11:59:02]
m = pair;
c = autoRecommend;
a = auto_overtime_48h;
To：hongkongtrader@gmail.com

[2018-09-30 11:59:02]
m = pair;
c = autoRecommend;
a = auto_overtime_48h;
To：enquiry@tutorseeking.com

[2018-09-30 11:59:02]
m = pair;
c = autoRecommend;
a = auto_overtime_48h;
To：451870143@qq.com

[2018-09-30 13:49:45]
m = tparents;
c = index;
a = stu_reg;
To：Jennymyy@yahoo.com.hk

[2018-09-30 13:51:32]
m = teachers;
c = index;
a = tutor_reg;
To：Lisah.lisa111@gmail.com

[2018-09-30 14:02:12]
m = pay;
c = respond;
a = respond_post;
To：samxspencer@gmail.com

[2018-09-30 14:02:12]
m = pay;
c = respond;
a = respond_post;
To：Jennymyy@yahoo.com.hk

[2018-09-30 14:02:12]
m = pay;
c = respond;
a = respond_post;
To：enquiry@tutorseeking.com

[2018-09-30 14:52:01]
m = pair;
c = autoRecommend;
a = auto_overtime_48h;
To：muikitlam@gmail.com

[2018-09-30 14:52:01]
m = pair;
c = autoRecommend;
a = auto_overtime_48h;
To：linerika125@gmail.com

[2018-09-30 14:52:01]
m = pair;
c = autoRecommend;
a = auto_overtime_48h;
To：enquiry@tutorseeking.com

[2018-09-30 14:52:01]
m = pair;
c = autoRecommend;
a = auto_overtime_48h;
To：451870143@qq.com

[2018-09-30 17:17:06]
m = teachers;
c = index;
a = tutor_reg;
To：cathleen_lai@hotmail.com

[2018-09-30 17:34:00]
m = pair;
c = autoRecommend;
a = auto_overtime_48h;
To：cathleen_lai@hotmail.com

[2018-09-30 17:34:00]
m = pair;
c = autoRecommend;
a = auto_overtime_48h;
To：angel@pointersgemcraft.com

[2018-09-30 17:34:00]
m = pair;
c = autoRecommend;
a = auto_overtime_48h;
To：enquiry@tutorseeking.com

[2018-09-30 17:34:00]
m = pair;
c = autoRecommend;
a = auto_overtime_48h;
To：451870143@qq.com

[2018-09-30 19:10:41]
m = teachers;
c = index;
a = tutor_reg;
To：lcchan990321@gmail.com

[2018-09-30 19:50:57]
m = teachers;
c = index;
a = tutor_reg;
To：marcussherraylee@gmail.com

[2018-09-30 21:44:58]
m = teachers;
c = index;
a = tutor_reg;
To：edwardchan4222@gmail.com

